%YAML 1.1
%TAG !u! tag:unity3d.com,2011:
--- !u!114 &11400000
MonoBehaviour:
  m_ObjectHideFlags: 0
  m_PrefabParentObject: {fileID: 0}
  m_PrefabInternal: {fileID: 0}
  m_GameObject: {fileID: 0}
  m_Enabled: 1
  m_EditorHideFlags: 0
  m_Script: {fileID: 11500000, guid: 44fc5bfdadad6c047acaca7c8041b134, type: 3}
  m_Name: Case_Arrhythmias_EL
  m_EditorClassIdentifier: 
  CaseUID: 5943
  CaseTitle: "\u0391\u03C1\u03C1\u03C5\u03B8\u03BC\u03B9\u03B1"
  CaseText: 
  CaseNodes:
  - {fileID: 11400000, guid: 03a7eb9953b370f46af0e27878809bb3, type: 2}
  - {fileID: 11400000, guid: 4dae723a774835c498623d91b7525588, type: 2}
  - {fileID: 11400000, guid: 7e68966ffbec99444a1bd95b3e457620, type: 2}
  - {fileID: 11400000, guid: 99771019c33aeed4995e826cf954c6b9, type: 2}
  - {fileID: 11400000, guid: b4b049ba197497745bbc98a8a865f791, type: 2}
  - {fileID: 11400000, guid: 7126fd022a63366419b45638c65b208e, type: 2}
  - {fileID: 11400000, guid: c558ae5bc7ef3b84c979eb469146f33b, type: 2}
  - {fileID: 11400000, guid: c85fa543a18567e4c9b2bb8c2d9c0d11, type: 2}
  - {fileID: 11400000, guid: 3cf544cc4ca67a34088d579c0b9238c9, type: 2}
  - {fileID: 11400000, guid: 92abb2c1eab7ad64d8e9da657c1afa69, type: 2}
  StartingNode: {fileID: 11400000, guid: 03a7eb9953b370f46af0e27878809bb3, type: 2}
  EndNode: {fileID: 11400000, guid: 92abb2c1eab7ad64d8e9da657c1afa69, type: 2}
