%YAML 1.1
%TAG !u! tag:unity3d.com,2011:
--- !u!114 &11400000
MonoBehaviour:
  m_ObjectHideFlags: 0
  m_PrefabParentObject: {fileID: 0}
  m_PrefabInternal: {fileID: 0}
  m_GameObject: {fileID: 0}
  m_Enabled: 1
  m_EditorHideFlags: 0
  m_Script: {fileID: 11500000, guid: 46205a386979d1f47bce68dcefac02f3, type: 3}
  m_Name: Link_5988_EL
  m_EditorClassIdentifier: 
  LinkUID: 5988
  LinkText: "Monitoring \u03BA\u03B1\u03B9 \u03B5\u03C1\u03B3\u03B1\u03C3\u03C4\u03B7\u03C1\u03B9\u03B1\u03BA\u03AC
    \u03B5\u03C0\u03CC\u03BC\u03B5\u03BD\u03B7\u03C2 \u03B7\u03BC\u03AD\u03C1\u03B1\u03C2"
  LinkResult: "\u03A3\u03C9\u03C3\u03C4\u03AC! \u03A4\u03BF\u03BD \u03C0\u03B1\u03C1\u03B1\u03BA\u03BF\u03BB\u03BF\u03C5\u03B8\u03B5\u03AF\u03C2
    \u03BA\u03B1\u03B9 \u03C4\u03B7\u03BD \u03B5\u03C0\u03CC\u03BC\u03B5\u03BD\u03B7
    \u03B7\u03BC\u03AD\u03C1\u03B1 \u03B8\u03B1 \u03BC\u03C0\u03BF\u03C1\u03AD\u03C3\u03B5\u03B9
    \u03BD\u03B1 \u03B3\u03AF\u03BD\u03B5\u03B9 \u03C4\u03BF \u03B4\u03B9\u03BF\u03B9\u03C3\u03BF\u03C6\u03AC\u03B3\u03B5\u03B9\u03BF
    \u03C5\u03C0\u03B5\u03C1\u03B7\u03C7\u03BF\u03BA\u03B1\u03C1\u03B4\u03B9\u03BF\u03B3\u03C1\u03AC\u03C6\u03B7\u03BC\u03B1.
    \u0395\u03C0\u03B9\u03C0\u03BB\u03AD\u03BF\u03BD \u03B4\u03AF\u03BD\u03B5\u03B9\u03C2
    \u03C4\u03BF\u03BD \u03B1\u03C0\u03B1\u03C1\u03B1\u03AF\u03C4\u03B7\u03C4\u03BF
    \u03B5\u03C1\u03B3\u03B1\u03C3\u03C4\u03B7\u03C1\u03B9\u03B1\u03BA\u03CC \u03AD\u03BB\u03B5\u03B3\u03C7\u03BF
    \u03BA\u03B1\u03B9 \u03BF\u03B4\u03B7\u03B3\u03AF\u03B5\u03C2 \u03B3\u03B9\u03B1
    \u03AD\u03BD\u03B1 \u03BD\u03AD\u03BF \u0397\u039A\u0393."
  TargetNode: {fileID: 11400000, guid: 25628fd045a3b9a4cb8dd6872044d92e, type: 2}
  ActivationButton: {fileID: 0}
  IsActive: 0
