%YAML 1.1
%TAG !u! tag:unity3d.com,2011:
--- !u!114 &11400000
MonoBehaviour:
  m_ObjectHideFlags: 0
  m_PrefabParentObject: {fileID: 0}
  m_PrefabInternal: {fileID: 0}
  m_GameObject: {fileID: 0}
  m_Enabled: 1
  m_EditorHideFlags: 0
  m_Script: {fileID: 11500000, guid: 46205a386979d1f47bce68dcefac02f3, type: 3}
  m_Name: Link_5982_EN
  m_EditorClassIdentifier: 
  LinkUID: 5982
  LinkText: Aspirin
  LinkResult: Aspirin did not protect your patient from thromboembolism. During the
    night they cry out because Mr. Papadopoulos suffered a stroke. You can find a
    cannon in the unit. Relatives out there wait for you to explain what happened.
  TargetNode: {fileID: 11400000, guid: 5fbc49cd061fedd41aa89c59dfad81d7, type: 2}
  ActivationButton: {fileID: 0}
  IsActive: 0
