%YAML 1.1
%TAG !u! tag:unity3d.com,2011:
--- !u!114 &11400000
MonoBehaviour:
  m_ObjectHideFlags: 0
  m_PrefabParentObject: {fileID: 0}
  m_PrefabInternal: {fileID: 0}
  m_GameObject: {fileID: 0}
  m_Enabled: 1
  m_EditorHideFlags: 0
  m_Script: {fileID: 11500000, guid: 46205a386979d1f47bce68dcefac02f3, type: 3}
  m_Name: Link_5977_EN
  m_EditorClassIdentifier: 
  LinkUID: 5977
  LinkText: Next
  LinkResult: 
  TargetNode: {fileID: 11400000, guid: 5ac0569e50ca5f34ab4838deb11da6c2, type: 2}
  ActivationButton: {fileID: 0}
  IsActive: 0
