%YAML 1.1
%TAG !u! tag:unity3d.com,2011:
--- !u!114 &11400000
MonoBehaviour:
  m_ObjectHideFlags: 0
  m_PrefabParentObject: {fileID: 0}
  m_PrefabInternal: {fileID: 0}
  m_GameObject: {fileID: 0}
  m_Enabled: 1
  m_EditorHideFlags: 0
  m_Script: {fileID: 11500000, guid: 46205a386979d1f47bce68dcefac02f3, type: 3}
  m_Name: Link_5966_EL
  m_EditorClassIdentifier: 
  LinkUID: 5966
  LinkTitle: 
  LinkText: "\u0388\u03BA\u03C4\u03B1\u03BA\u03C4\u03B5\u03C2 \u03BA\u03BF\u03B9\u03BB\u03B9\u03B1\u03BA\u03AD\u03C2"
  LinkResult: "\u039B\u03AC\u03B8\u03BF\u03C2, \u03BA\u03BF\u03AF\u03C4\u03B1\u03BE\u03B5
    \u03C0\u03AC\u03BB\u03B9"
  TargetNode: {fileID: 0}
  ActivationButton: {fileID: 0}
  IsActive: 0
