%YAML 1.1
%TAG !u! tag:unity3d.com,2011:
--- !u!114 &11400000
MonoBehaviour:
  m_ObjectHideFlags: 0
  m_PrefabParentObject: {fileID: 0}
  m_PrefabInternal: {fileID: 0}
  m_GameObject: {fileID: 0}
  m_Enabled: 1
  m_EditorHideFlags: 0
  m_Script: {fileID: 11500000, guid: 46205a386979d1f47bce68dcefac02f3, type: 3}
  m_Name: Link_5951_EN
  m_EditorClassIdentifier: 
  LinkUID: 5951
  LinkText: Next
  LinkResult: 
  TargetNode: {fileID: 11400000, guid: 9509d294b71fa674a96af762b8406fe2, type: 2}
  ActivationButton: {fileID: 0}
  IsActive: 0
