%YAML 1.1
%TAG !u! tag:unity3d.com,2011:
--- !u!114 &11400000
MonoBehaviour:
  m_ObjectHideFlags: 0
  m_PrefabParentObject: {fileID: 0}
  m_PrefabInternal: {fileID: 0}
  m_GameObject: {fileID: 0}
  m_Enabled: 1
  m_EditorHideFlags: 0
  m_Script: {fileID: 11500000, guid: 46205a386979d1f47bce68dcefac02f3, type: 3}
  m_Name: Link_5948_EL
  m_EditorClassIdentifier: 
  LinkUID: 5948
  LinkTitle: 
  LinkText: "1\u03BF\u03C2,2\u03BF\u03C2 \u03C4\u03CC\u03BD\u03BF\u03C2 \u03BA\u03C6
    & \u03BA\u03C5\u03C8\u03B5\u03BB\u03B9\u03B4\u03B9\u03BA\u03CC \u03C8\u03B9\u03B8/\u03BC\u03B1
    \u03BA\u03C6"
  LinkSpeechMessage: "\u0394\u03B5\u03BD \u03B1\u03BA\u03BF\u03CD\u03C2 \u03BA\u03AC\u03C4\u03B9
    \u03C0\u03B1\u03B8\u03BF\u03BB\u03BF\u03B3\u03B9\u03BA\u03CC \u03B1\u03C0\u03CC
    \u03C4\u03BF\u03C5\u03C2 \u03BA\u03B1\u03C1\u03B4\u03B9\u03B1\u03BA\u03BF\u03CD\u03C2
    \u03C4\u03CC\u03BD\u03BF\u03C5\u03C2, \u03B5\u03BD\u03CE \u03B1\u03BA\u03BF\u03CD\u03C2
    \u03BA\u03B1\u03B9 \u03BA\u03C5\u03C8\u03B5\u03BB\u03B9\u03B4\u03B9\u03BA\u03CC
    \u03B1\u03BD\u03B1\u03C0\u03BD\u03B5\u03C5\u03C3\u03C4\u03B9\u03BA\u03CC \u03C8\u03B9\u03B8\u03CD\u03C1\u03B9\u03C3\u03BC\u03B1.\_\u0394\u03B5\u03C2
    \u03C4\u03CE\u03C1\u03B1 \u03C4\u03B7 \u03C3\u03C6\u03B1\u03B3\u03B9\u03C4\u03B9\u03B4\u03B9\u03BA\u03AE
    \u03C6\u03BB\u03B5\u03B2\u03B9\u03BA\u03AE \u03C0\u03AF\u03B5\u03C3\u03B7.\_"
  TargetNode: {fileID: 11400000, guid: 99771019c33aeed4995e826cf954c6b9, type: 2}
  ActivationButton: {fileID: 0}
  IsActive: 0
