%YAML 1.1
%TAG !u! tag:unity3d.com,2011:
--- !u!114 &11400000
MonoBehaviour:
  m_ObjectHideFlags: 0
  m_PrefabParentObject: {fileID: 0}
  m_PrefabInternal: {fileID: 0}
  m_GameObject: {fileID: 0}
  m_Enabled: 1
  m_EditorHideFlags: 0
  m_Script: {fileID: 11500000, guid: 46205a386979d1f47bce68dcefac02f3, type: 3}
  m_Name: Link_5964_EN
  m_EditorClassIdentifier: 
  LinkUID: 5964
  LinkText: Atrial fibrillation and tachycardia
  LinkResult: Good! Now what exams are you planning to do?
  TargetNode: {fileID: 11400000, guid: a04cb02b1023b16458501c03670e27a5, type: 2}
  ActivationButton: {fileID: 0}
  IsActive: 0
