%YAML 1.1
%TAG !u! tag:unity3d.com,2011:
--- !u!114 &11400000
MonoBehaviour:
  m_ObjectHideFlags: 0
  m_PrefabParentObject: {fileID: 0}
  m_PrefabInternal: {fileID: 0}
  m_GameObject: {fileID: 0}
  m_Enabled: 1
  m_EditorHideFlags: 0
  m_Script: {fileID: 11500000, guid: 46205a386979d1f47bce68dcefac02f3, type: 3}
  m_Name: Link_5985_EL
  m_EditorClassIdentifier: 
  LinkUID: 5985
  LinkText: "\u0394\u03BF\u03BA\u03B9\u03BC\u03B1\u03C3\u03AF\u03B1 \u03BA\u03CC\u03C0\u03C9\u03C3\u03B7\u03C2"
  LinkResult: "\u0393\u03B9\u03B1 \u03C0\u03BF\u03B9\u03BF \u03BB\u03CC\u03B3\u03BF
    \u03BD\u03B1 \u03BA\u03AC\u03BD\u03B5\u03B9\u03C2 \u03B4\u03BF\u03BA\u03B9\u03BC\u03B1\u03C3\u03AF\u03B1
    \u03BA\u03CC\u03C0\u03C9\u03C3\u03B7\u03C2 \u03BD\u03C5\u03C7\u03C4\u03B9\u03AC\u03C4\u03B9\u03BA\u03B1;
    M\u03C0\u03BF\u03C1\u03B5\u03AF \u03BD\u03B1 \u03B3\u03AF\u03BD\u03B5\u03B9 \u03C3\u03B5
    \u03B4\u03B5\u03CD\u03C4\u03B5\u03C1\u03BF \u03C7\u03C1\u03CC\u03BD\u03BF."
  TargetNode: {fileID: 0}
  ActivationButton: {fileID: 0}
  IsActive: 0
