%YAML 1.1
%TAG !u! tag:unity3d.com,2011:
--- !u!114 &11400000
MonoBehaviour:
  m_ObjectHideFlags: 0
  m_PrefabParentObject: {fileID: 0}
  m_PrefabInternal: {fileID: 0}
  m_GameObject: {fileID: 0}
  m_Enabled: 1
  m_EditorHideFlags: 0
  m_Script: {fileID: 11500000, guid: 46205a386979d1f47bce68dcefac02f3, type: 3}
  m_Name: Link_5960_EL
  m_EditorClassIdentifier: 
  LinkUID: 5960
  LinkTitle: 
  LinkText: "ECHO \u03BA\u03B1\u03C1\u03B4\u03B9\u03AC\u03C2"
  LinkResult: "\u03A5\u03C0\u03AC\u03C1\u03C7\u03BF\u03C5\u03BD \u03AC\u03BB\u03BB\u03B5\u03C2
    \u03B5\u03BE\u03B5\u03C4\u03AC\u03C3\u03B5\u03B9\u03C2 \u03C0\u03BF\u03C5 \u03C0\u03C1\u03AD\u03C0\u03B5\u03B9
    \u03BD\u03B1 \u03B4\u03B9\u03B5\u03BD\u03B5\u03C1\u03B3\u03B7\u03B8\u03BF\u03CD\u03BD
    \u03B1\u03C5\u03C4\u03AE \u03C4\u03B7 \u03C3\u03C4\u03B9\u03B3\u03BC\u03AE."
  TargetNode: {fileID: 0}
  ActivationButton: {fileID: 0}
  IsActive: 0
