%YAML 1.1
%TAG !u! tag:unity3d.com,2011:
--- !u!114 &11400000
MonoBehaviour:
  m_ObjectHideFlags: 0
  m_PrefabParentObject: {fileID: 0}
  m_PrefabInternal: {fileID: 0}
  m_GameObject: {fileID: 0}
  m_Enabled: 1
  m_EditorHideFlags: 0
  m_Script: {fileID: 11500000, guid: 46205a386979d1f47bce68dcefac02f3, type: 3}
  m_Name: Link_5963_EL
  m_EditorClassIdentifier: 
  LinkUID: 5963
  LinkTitle: 
  LinkText: "\u03A6\u03BB\u03B5\u03B2\u03BF\u03BA\u03BF\u03BC\u03B2\u03B9\u03BA\u03CC\u03C2
    \u03C1\u03C5\u03B8\u03BC\u03CC\u03C2"
  LinkResult: "\u039A\u03AC\u03C4\u03B9 \u03C0\u03C1\u03AD\u03C0\u03B5\u03B9 \u03BD\u03B1
    \u03C3\u03BF\u03C5 \u03AD\u03C7\u03B5\u03B9 \u03BE\u03B5\u03C6\u03CD\u03B3\u03B5\u03B9.
    \u03A0\u03BF\u03CD \u03B5\u03AF\u03BD\u03B1\u03B9 \u03C4\u03B1 p; \u039E\u03B1\u03BD\u03B1\u03B4\u03AD\u03C2
    \u03C0\u03C1\u03BF\u03C3\u03B5\u03BA\u03C4\u03B9\u03BA\u03AC"
  TargetNode: {fileID: 0}
  ActivationButton: {fileID: 0}
  IsActive: 0
