%YAML 1.1
%TAG !u! tag:unity3d.com,2011:
--- !u!114 &11400000
MonoBehaviour:
  m_ObjectHideFlags: 0
  m_PrefabParentObject: {fileID: 0}
  m_PrefabInternal: {fileID: 0}
  m_GameObject: {fileID: 0}
  m_Enabled: 1
  m_EditorHideFlags: 0
  m_Script: {fileID: 11500000, guid: 46205a386979d1f47bce68dcefac02f3, type: 3}
  m_Name: Link_5954_EN
  m_EditorClassIdentifier: 
  LinkUID: 5954
  LinkText: 'Fragment of the 4th rib at the left        '
  LinkResult: 'You are reading the results: Chest X-ray. Fracture of the 4th rib of
    the antelope. Normal CT marker. Pulmonary fields normal. Spinal cord. Without
    fracture or dislocation. The fracture explains the sensitivity to the left side
    of the chest, but you still have to think about shortness of breath and palpitations.
    What tests are you planning to do now?'
  TargetNode: {fileID: 11400000, guid: a4651badf8edf3440b2eda3cbe6e0641, type: 2}
  ActivationButton: {fileID: 0}
  IsActive: 0
