%YAML 1.1
%TAG !u! tag:unity3d.com,2011:
--- !u!114 &11400000
MonoBehaviour:
  m_ObjectHideFlags: 0
  m_PrefabParentObject: {fileID: 0}
  m_PrefabInternal: {fileID: 0}
  m_GameObject: {fileID: 0}
  m_Enabled: 1
  m_EditorHideFlags: 0
  m_Script: {fileID: 11500000, guid: 46205a386979d1f47bce68dcefac02f3, type: 3}
  m_Name: Link_5965_EN
  m_EditorClassIdentifier: 
  LinkUID: 5965
  LinkText: Atrial flutter
  LinkResult: 'It is not right, as with flutter there should be distinct waves f at
    a ratio of eg 1: 3 or 1: 4'
  TargetNode: {fileID: 0}
  ActivationButton: {fileID: 0}
  IsActive: 0
