%YAML 1.1
%TAG !u! tag:unity3d.com,2011:
--- !u!114 &11400000
MonoBehaviour:
  m_ObjectHideFlags: 0
  m_PrefabParentObject: {fileID: 0}
  m_PrefabInternal: {fileID: 0}
  m_GameObject: {fileID: 0}
  m_Enabled: 1
  m_EditorHideFlags: 0
  m_Script: {fileID: 11500000, guid: c3cb0fec793a57a499b5c4829e138744, type: 3}
  m_Name: Node_5989_EN
  m_EditorClassIdentifier: 
  NodeUID: 5989
  NodeTitle: Give explainations to Mr. Papadopoulos
  NodeText: Explain to Mr. Papadopoulos about the arrhythmia he has and how he will
    need to stay in the hospital where in the next hours the ultrasound will be checked.
    Meanwhile, you are re looking for a new ECG.
  NodeLinks:
  - {fileID: 11400000, guid: fe47d4e9d3f4eea4d9c446d4f0ade106, type: 2}
  HasHeartAudioSample: 0
  HasLungAudioSample: 0
  HasECG1ImageSample: 0
  HasECG2ImageSample: 0
  HasXrayImageSample: 0
