%YAML 1.1
%TAG !u! tag:unity3d.com,2011:
--- !u!114 &11400000
MonoBehaviour:
  m_ObjectHideFlags: 0
  m_PrefabParentObject: {fileID: 0}
  m_PrefabInternal: {fileID: 0}
  m_GameObject: {fileID: 0}
  m_Enabled: 1
  m_EditorHideFlags: 0
  m_Script: {fileID: 11500000, guid: c3cb0fec793a57a499b5c4829e138744, type: 3}
  m_Name: Node_5951_EN
  m_EditorClassIdentifier: 
  NodeUID: 5951
  NodeTitle: Examination of jugular pulse
  NodeText: The examination of the jugular pulse and central venous pressure  has
    been done. The height is affected by cardiac function and intravascular volume.
    You do not see any pathological findings.
  NodeLinks:
  - {fileID: 11400000, guid: 7fdaa7b904aed2d489a8aecf37a9f5c1, type: 2}
  HasHeartAudioSample: 0
  HasLungAudioSample: 0
  HasECG1ImageSample: 0
  HasECG2ImageSample: 0
  HasXrayImageSample: 0
