%YAML 1.1
%TAG !u! tag:unity3d.com,2011:
--- !u!114 &11400000
MonoBehaviour:
  m_ObjectHideFlags: 0
  m_PrefabParentObject: {fileID: 0}
  m_PrefabInternal: {fileID: 0}
  m_GameObject: {fileID: 0}
  m_Enabled: 1
  m_EditorHideFlags: 0
  m_Script: {fileID: 11500000, guid: c3cb0fec793a57a499b5c4829e138744, type: 3}
  m_Name: Node_5999_EN
  m_EditorClassIdentifier: 
  NodeUID: 5999
  NodeTitle: Correct!
  NodeText: The electrical access of your patient heart is in normal. What is your
    next move?
  NodeLinks:
  - {fileID: 11400000, guid: 589a1e161740ded489172858e66e526b, type: 2}
  - {fileID: 11400000, guid: 5d5330460af145f4b8a14cde78d12a54, type: 2}
  - {fileID: 11400000, guid: c81a4f293f89a2e40837826814f44d4d, type: 2}
  HasHeartAudioSample: 0
  HasLungAudioSample: 0
  HasECG1ImageSample: 0
  HasECG2ImageSample: 0
  HasXrayImageSample: 0
