%YAML 1.1
%TAG !u! tag:unity3d.com,2011:
--- !u!114 &11400000
MonoBehaviour:
  m_ObjectHideFlags: 0
  m_PrefabParentObject: {fileID: 0}
  m_PrefabInternal: {fileID: 0}
  m_GameObject: {fileID: 0}
  m_Enabled: 1
  m_EditorHideFlags: 0
  m_Script: {fileID: 11500000, guid: c3cb0fec793a57a499b5c4829e138744, type: 3}
  m_Name: Node_6004_W_EN
  m_EditorClassIdentifier: 
  NodeUID: 6004
  NodeTitle: 'Aspirin did not protect your patient from thromboembolism. '
  NodeText: During the night they cry out because Mr. Papadopoulos suffered a stroke.
    You can find a cannon in the unit. Relatives out there wait for you to explain
    what happened.
  NodeLinks: []
  HasHeartAudioSample: 0
  HasLungAudioSample: 0
  HasECG1ImageSample: 0
  HasECG2ImageSample: 0
  HasXrayImageSample: 0
