%YAML 1.1
%TAG !u! tag:unity3d.com,2011:
--- !u!114 &11400000
MonoBehaviour:
  m_ObjectHideFlags: 0
  m_PrefabParentObject: {fileID: 0}
  m_PrefabInternal: {fileID: 0}
  m_GameObject: {fileID: 0}
  m_Enabled: 1
  m_EditorHideFlags: 0
  m_Script: {fileID: 11500000, guid: c3cb0fec793a57a499b5c4829e138744, type: 3}
  m_Name: Node_5976_EL
  m_EditorClassIdentifier: 
  NodeUID: 5976
  NodeTitle: "\u0391\u03B9\u03BC\u03BF\u03B4\u03C5\u03BD\u03B1\u03BC\u03B9\u03BA\u03AD\u03C2
    \u03C3\u03C5\u03BD\u03AD\u03C0\u03B5\u03B9\u03B5\u03C2 \u03C4\u03B7\u03C2 \u03BA\u03BF\u03BB\u03C0\u03B9\u03BA\u03AE\u03C2
    \u03BC\u03B1\u03C1\u03BC\u03B1\u03C1\u03C5\u03B3\u03AE\u03C2"
  NodeText: "\u0391\u03C0\u03CE\u03BB\u03B5\u03B9\u03B1 \u03C4\u03BF\u03C5 \u03BA\u03BF\u03BB\u03C0\u03B9\u03BA\u03BF\u03CD
    \u03BB\u03B1\u03BA\u03C4\u03AF\u03C3\u03BC\u03B1\u03C4\u03BF\u03C2 \u0391\u03C3\u03CD\u03B3\u03C7\u03C1\u03BF\u03BD\u03B7
    \u03BA\u03BF\u03B9\u03BB\u03B9\u03B1\u03BA\u03AE \u03B1\u03C0\u03AC\u03BD\u03C4\u03B7\u03C3\u03B7
    \u03A4\u03B1\u03C7\u03CD\u03C2 \u03BA\u03B1\u03C1\u03B4\u03B9\u03B1\u03BA\u03CC\u03C2
    \u03C1\u03C5\u03B8\u03BC\u03CC\u03C2 \u039C\u03B5\u03B9\u03C9\u03BC\u03AD\u03BD\u03B7
    \u03C3\u03C4\u03B5\u03C6\u03B1\u03BD\u03B9\u03B1\u03AF\u03B1 \u03C1\u03BF\u03AE"
  NodeLinks:
  - {fileID: 11400000, guid: 5dc54d76edb159c4bac8fbaeb8d269cd, type: 2}
