%YAML 1.1
%TAG !u! tag:unity3d.com,2011:
--- !u!114 &11400000
MonoBehaviour:
  m_ObjectHideFlags: 0
  m_PrefabParentObject: {fileID: 0}
  m_PrefabInternal: {fileID: 0}
  m_GameObject: {fileID: 0}
  m_Enabled: 1
  m_EditorHideFlags: 0
  m_Script: {fileID: 11500000, guid: c3cb0fec793a57a499b5c4829e138744, type: 3}
  m_Name: Node_5951_EL
  m_EditorClassIdentifier: 
  NodeUID: 5951
  NodeTitle: "\u0395\u03BE\u03AD\u03C4\u03B1\u03C3\u03B7 \u03C3\u03C6\u03B1\u03B3\u03B9\u03C4\u03B9\u03B4\u03B9\u03BA\u03BF\u03CD
    \u03C3\u03C6\u03C5\u03B3\u03BC\u03BF\u03CD"
  NodeText: "\u0397 \u03B5\u03BE\u03AD\u03C4\u03B1\u03C3\u03B7 \u03C4\u03BF\u03C5
    \u03C3\u03C6\u03B1\u03B3\u03B9\u03C4\u03B9\u03B4\u03B9\u03BA\u03BF\u03CD \u03C3\u03C6\u03C5\u03B3\u03BC\u03BF\u03CD
    \u03BA\u03B1\u03B9 \u03C4\u03B7\u03C2 \u03BA\u03B5\u03BD\u03C4\u03C1\u03B9\u03BA\u03AE\u03C2
    \u03C6\u03BB\u03B5\u03B2\u03B9\u03BA\u03AE\u03C2 \u03C0\u03AF\u03B5\u03C3\u03B7\u03C2
    \u03B3\u03AF\u03BD\u03B5\u03C4\u03B1\u03B9 \u03BC\u03B5 \u03C4\u03BF\u03BD \u03B1\u03C3\u03B8\u03B5\u03BD\u03AE
    \u03BE\u03B1\u03C0\u03BB\u03CE\u03BC\u03B5\u03BD\u03BF \u03C3\u03B5 \u03B8\u03AD\u03C3\u03B7
    45 \u03BC\u03BF\u03B9\u03C1\u03CE\u03BD \u03C3\u03B5 \u03C3\u03C7\u03AD\u03C3\u03B7
    \u03BC\u03B5 \u03C4\u03BF \u03BF\u03C1\u03B9\u03B6\u03CC\u03BD\u03C4\u03B9\u03BF
    \u03B5\u03C0\u03AF\u03C0\u03B5\u03B4\u03BF. \u03A4\u03BF \u03CD\u03C8\u03BF\u03C2
    \u03B5\u03C0\u03B7\u03C1\u03B5\u03AC\u03B6\u03B5\u03C4\u03B1\u03B9 \u03B1\u03C0\u03CC
    \u03C4\u03B7\u03BD \u03BA\u03B1\u03C1\u03B4\u03B9\u03B1\u03BA\u03AE \u03BB\u03B5\u03B9\u03C4\u03BF\u03C5\u03C1\u03B3\u03AF\u03B1
    \u03BA\u03B1\u03B9 \u03C4\u03BF\u03BD \u03B5\u03BD\u03B4\u03B1\u03B3\u03B3\u03B5\u03B9\u03B1\u03BA\u03CC
    \u03CC\u03B3\u03BA\u03BF. \u0394\u03B5 \u03B2\u03BB\u03AD\u03C0\u03B5\u03B9\u03C2
    \u03C0\u03B1\u03B8\u03BF\u03BB\u03BF\u03B3\u03B9\u03BA\u03AC \u03B5\u03C5\u03C1\u03AE\u03BC\u03B1\u03C4\u03B1."
  NodeLinks:
  - {fileID: 11400000, guid: 2d881655fde5b6445b917538ad7345c9, type: 2}
