%YAML 1.1
%TAG !u! tag:unity3d.com,2011:
--- !u!114 &11400000
MonoBehaviour:
  m_ObjectHideFlags: 0
  m_PrefabParentObject: {fileID: 0}
  m_PrefabInternal: {fileID: 0}
  m_GameObject: {fileID: 0}
  m_Enabled: 1
  m_EditorHideFlags: 0
  m_Script: {fileID: 11500000, guid: c3cb0fec793a57a499b5c4829e138744, type: 3}
  m_Name: Node_5980_EL
  m_EditorClassIdentifier: 
  NodeUID: 5980
  NodeTitle: "\u03A3\u03C9\u03C3\u03C4\u03AC!"
  NodeText: "\u039C\u03B5 \u03C4\u03BF\u03BD \u03C5\u03C0\u03B5\u03C1\u03B7\u03C7\u03BF\u03BA\u03B1\u03C1\u03B4\u03B9\u03BF\u03B3\u03C1\u03B1\u03C6\u03B9\u03BA\u03CC
    \u03AD\u03BB\u03B5\u03B3\u03C7\u03BF \u03B8\u03B1 \u03B4\u03B5\u03B9\u03C2 \u03C4\u03BF
    \u03BC\u03AD\u03B3\u03B5\u03B8\u03BF\u03C2 \u03C4\u03BF\u03C5 \u03B1\u03C1\u03B9\u03C3\u03C4\u03B5\u03C1\u03BF\u03CD
    \u03BA\u03CC\u03BB\u03C0\u03BF\u03C5, \u03C4\u03B7 \u03C3\u03C5\u03BD\u03BF\u03BB\u03B9\u03BA\u03AE
    \u03BB\u03B5\u03B9\u03C4\u03BF\u03C5\u03C1\u03B3\u03AF\u03B1 \u03C4\u03B7\u03C2
    \u03BA\u03B1\u03C1\u03B4\u03B9\u03AC\u03C2 \u03BA\u03B1\u03B9 \u03C0\u03B9\u03B8\u03B1\u03BD\u03AD\u03C2
    \u03B2\u03B1\u03BB\u03B2\u03B9\u03B4\u03BF\u03C0\u03AC\u03B8\u03B5\u03B9\u03B5\u03C2.
    \u0399\u03B4\u03AF\u03C9\u03C2 \u03C4\u03BF \u03B4\u03B9\u03BF\u03B9\u03C3\u03C6\u03AC\u03B3\u03B5\u03B9\u03BF
    \u03C5\u03C0\u03AD\u03C1\u03B7\u03C7\u03BF \u03C3\u03C5\u03BC\u03B2\u03AC\u03BB\u03BB\u03B5\u03B9
    \u03BF\u03C5\u03C3\u03B9\u03B1\u03C3\u03C4\u03B9\u03BA\u03AC \u03C3\u03C4\u03B7\u03BD
    \u03B5\u03CD\u03C1\u03B5\u03C3\u03B7 \u03C0\u03B9\u03B8\u03B1\u03BD\u03BF\u03CD
    \u03B8\u03C1\u03CC\u03BC\u03B2\u03BF\u03C5.\_ \u039F \u03AD\u03BB\u03B5\u03B3\u03C7\u03BF\u03C2
    \u03C4\u03B7\u03C2 \u03B1\u03C1\u03C4\u03B7\u03C1\u03B9\u03B1\u03BA\u03AE\u03C2
    \u03C0\u03AF\u03B5\u03C3\u03B7\u03C2 \u03B5\u03AF\u03BD\u03B1\u03B9 \u03C3\u03B7\u03BC\u03B1\u03BD\u03C4\u03B9\u03BA\u03CC\u03C2
    \u03BA\u03B1\u03B9 \u03B7 \u03B4\u03BF\u03BA\u03B9\u03BC\u03B1\u03C3\u03AF\u03B1
    \u03BA\u03CC\u03C0\u03C9\u03C3\u03B7\u03C2 \u03B8\u03B1 \u03C3\u03B5 \u03B2\u03BF\u03B7\u03B8\u03AE\u03C3\u03B5\u03B9
    \u03BD\u03B1 \u03B1\u03C0\u03BF\u03BA\u03BB\u03B5\u03AF\u03C3\u03B5\u03B9\u03C2
    \u03C3\u03C4\u03B7\u03B8\u03AC\u03B3\u03C7\u03B7 \u03BA\u03BF\u03C0\u03CE\u03C3\u03B5\u03C9\u03C2.\u0394\u03AF\u03BD\u03B5\u03B9\u03C2
    \u03BF\u03B4\u03B7\u03B3\u03AF\u03B5\u03C2 \u03BB\u03BF\u03B9\u03C0\u03CC\u03BD
    \u03CE\u03C3\u03C4\u03B5 \u03C4\u03BF \u03B5\u03C0\u03CC\u03BC\u03B5\u03BD\u03BF
    \u03C0\u03C1\u03C9\u03AF \u03BD\u03B1 \u03B3\u03AF\u03BD\u03B5\u03B9 \u03BF \u03B1\u03C0\u03B1\u03C1\u03B1\u03AF\u03C4\u03B7\u03C4\u03BF\u03C2
    \u03AD\u03BB\u03B5\u03B3\u03C7\u03BF\u03C2. \u03A4\u03CE\u03C1\u03B1 \u03C4\u03B9
    \u03B4\u03AF\u03BD\u03B5\u03B9\u03C2;"
  NodeLinks:
  - {fileID: 11400000, guid: 8ec54d18fd76baf428142f6c02c18d91, type: 2}
  - {fileID: 11400000, guid: c44bfc4cca699834389130a63add56a5, type: 2}
  - {fileID: 11400000, guid: f19dd592886a99a4cb24392b67b1f33c, type: 2}
