%YAML 1.1
%TAG !u! tag:unity3d.com,2011:
--- !u!114 &11400000
MonoBehaviour:
  m_ObjectHideFlags: 0
  m_PrefabParentObject: {fileID: 0}
  m_PrefabInternal: {fileID: 0}
  m_GameObject: {fileID: 0}
  m_Enabled: 1
  m_EditorHideFlags: 0
  m_Script: {fileID: 11500000, guid: c3cb0fec793a57a499b5c4829e138744, type: 3}
  m_Name: Node_5999_EL
  m_EditorClassIdentifier: 
  NodeUID: 5999
  NodeTitle: "\u03A0\u03BF\u03BB\u03CD \u03C3\u03C9\u03C3\u03C4\u03AC!"
  NodeText: "O \u03B7\u03BB\u03B5\u03BA\u03C4\u03C1\u03B9\u03BA\u03CC\u03C2 \u03AC\u03BE\u03BF\u03BD\u03B1\u03C2
    \u03C4\u03B7\u03C2 \u03BA\u03B1\u03C1\u03B4\u03B9\u03AC\u03C2 \u03C4\u03BF\u03C5
    \u03B1\u03C3\u03B8\u03B5\u03BD\u03BF\u03CD\u03C2 \u03C3\u03BF\u03C5 \u03B2\u03C1\u03AF\u03C3\u03BA\u03B5\u03C4\u03B1\u03B9
    \u03BC\u03AD\u03C3\u03B1 \u03C3\u03B5 \u03C6\u03C5\u03C3\u03B9\u03BF\u03BB\u03BF\u03B3\u03B9\u03BA\u03AC
    \u03C0\u03BB\u03B1\u03AF\u03C3\u03B9\u03B1. \u03A4\u03B9 \u03B5\u03C0\u03B9\u03BB\u03AD\u03B3\u03B5\u03B9\u03C2
    \u03BD\u03B1 \u03BA\u03AC\u03BD\u03B5\u03B9\u03C2 \u03C4\u03CE\u03C1\u03B1;\_"
  NodeLinks:
  - {fileID: 11400000, guid: 1d4d9c4c0525bec4a876433998afd705, type: 2}
  - {fileID: 11400000, guid: 83f36ad2a8f0b9e4193838d58afa64b2, type: 2}
  - {fileID: 11400000, guid: c2e9a07ebdf4ea748aad75266fa37da7, type: 2}
