%YAML 1.1
%TAG !u! tag:unity3d.com,2011:
--- !u!114 &11400000
MonoBehaviour:
  m_ObjectHideFlags: 0
  m_PrefabParentObject: {fileID: 0}
  m_PrefabInternal: {fileID: 0}
  m_GameObject: {fileID: 0}
  m_Enabled: 1
  m_EditorHideFlags: 0
  m_Script: {fileID: 11500000, guid: c3cb0fec793a57a499b5c4829e138744, type: 3}
  m_Name: Node_5962_EL
  m_EditorClassIdentifier: 
  NodeUID: 5962
  NodeTitle: "\u03A4\u03B9 \u03B2\u03BB\u03AD\u03C0\u03B5\u03B9\u03C2;"
  NodeText: 
  NodeLinks:
  - {fileID: 11400000, guid: abf0e0f95f4d83b45a9e4c04e524e2ea, type: 2}
  - {fileID: 11400000, guid: e30619be17390fa4b88ef238a7caa8a6, type: 2}
  - {fileID: 11400000, guid: 507bbefbf6b740345994aa307703f250, type: 2}
  - {fileID: 11400000, guid: b76083822036f514787101c4f28d3618, type: 2}
  - {fileID: 11400000, guid: 8eeca3fc57d1ebc49b2c2e6a06d1125a, type: 2}
  HasHeartAudioSample: 0
  HasLungAudioSample: 0
  HasECG1ImageSample: 1
  HasECG2ImageSample: 0
  HasXrayImageSample: 0
